Calculate restricted ROC curves • restrictedROC
…
We have a convenient way to visualize the data and the results:

grouped_data <- split(biodata$biomarker, biodata$outcome)
png("man/figures/example.png", width = 800, height = 800, res = 120)
print(
    restrictedROC::plot_density_rROC_empirical(
        values_grouped = grouped_data,
        positive_label = "Good"
    )
)
#> $plots
#> 
#> $single_rROC
#> $performances
#> # A tibble: 101 × 21
#>    threshold auc_high positives_high negatives_high scaling_high auc_var_H0_high
#>        <dbl>    <dbl>          <dbl>          <dbl>        <dbl>           <dbl>
#>  1   -Inf       0.602             50             50         1            0.00337
#>  2      4.52    0.614             49             50         1.02         0.00340
#>  3      5.57    0.627             48             50         1.04         0.00344
#>  4      6.20    0.64              47             50         1.06         0.00348
#>  5      6.40    0.654             46             50         1.09         0.00351
#>  6      6.61    0.668             45             50         1.11         0.00356
#>  7      6.66    0.684             44             50         1.14         0.00360
#>  8      6.74    0.677             44             49         1.16         0.00363
#>  9      6.86    0.693             43             49         1.19         0.00368
#> 10      7.19    0.709             42             49         1.21         0.00373
#> # ℹ 91 more rows
#> # ℹ 15 more variables: rzAUC_high <dbl>, pval_asym_onesided_high <dbl>,
#> #   pval_asym_high <dbl>, auc_low <dbl>, positives_low <dbl>,
#> #   negatives_low <dbl>, scaling_low <dbl>, auc_var_H0_low <dbl>,
#> #   rzAUC_low <dbl>, pval_asym_onesided_low <dbl>, pval_asym_low <dbl>,
#> #   tp <dbl>, fp <dbl>, tpr_global <dbl>, fpr_global <dbl>
…
