…
#> 
#> $single_rROC
#> $performances
#> # A tibble: 101 × 21
#>    threshold auc_high positives_high negatives_high scaling_high auc_var_H0_high
#>        <dbl>    <dbl>          <dbl>          <dbl>        <dbl>           <dbl>
#>  1   -Inf       0.258             50             50         1            0.00337
#>  2     -2.35    0.264             49             50         1.02         0.00340
#>  3     -2.05    0.269             48             50         1.04         0.00344
#>  4     -1.61    0.275             47             50         1.06         0.00348
#>  5     -1.34    0.281             46             50         1.09         0.00351
#>  6     -1.31    0.287             45             50         1.11         0.00356
#>  7     -1.21    0.294             44             50         1.14         0.00360
#>  8     -1.12    0.300             43             50         1.16         0.00364
#>  9     -1.07    0.308             42             50         1.19         0.00369
#> 10     -1.05    0.315             41             50         1.22         0.00374
#> # ℹ 91 more rows
#> # ℹ 15 more variables: rzAUC_high <dbl>, pval_asym_onesided_high <dbl>,
#> #   pval_asym_high <dbl>, auc_low <dbl>, positives_low <dbl>,
#> #   negatives_low <dbl>, scaling_low <dbl>, auc_var_H0_low <dbl>,
#> #   rzAUC_low <dbl>, pval_asym_onesided_low <dbl>, pval_asym_low <dbl>,
#> #   tp <dbl>, fp <dbl>, tpr_global <dbl>, fpr_global <dbl>
…
#> 
#> $single_rROC
#> $performances
#> # A tibble: 101 × 21
#>    threshold auc_high positives_high negatives_high scaling_high auc_var_H0_high
#>        <dbl>    <dbl>          <dbl>          <dbl>        <dbl>           <dbl>
#>  1   -Inf       0.742             50             50         1            0.00337
#>  2     -2.35    0.736             50             49         1.02         0.00340
#>  3     -2.05    0.731             50             48         1.04         0.00344
#>  4     -1.61    0.725             50             47         1.06         0.00348
#>  5     -1.34    0.719             50             46         1.09         0.00351
#>  6     -1.31    0.713             50             45         1.11         0.00356
#>  7     -1.21    0.706             50             44         1.14         0.00360
#>  8     -1.12    0.700             50             43         1.16         0.00364
#>  9     -1.07    0.692             50             42         1.19         0.00369
#> 10     -1.05    0.685             50             41         1.22         0.00374
#> # ℹ 91 more rows
#> # ℹ 15 more variables: rzAUC_high <dbl>, pval_asym_onesided_high <dbl>,
#> #   pval_asym_high <dbl>, auc_low <dbl>, positives_low <dbl>,
#> #   negatives_low <dbl>, scaling_low <dbl>, auc_var_H0_low <dbl>,
#> #   rzAUC_low <dbl>, pval_asym_onesided_low <dbl>, pval_asym_low <dbl>,
#> #   tp <dbl>, fp <dbl>, tpr_global <dbl>, fpr_global <dbl>
…
#> 
#> $single_rROC
#> $performances
#> # A tibble: 101 × 21
#>    threshold auc_high positives_high negatives_high scaling_high auc_var_H0_high
#>        <dbl>    <dbl>          <dbl>          <dbl>        <dbl>           <dbl>
#>  1   -Inf       0.258             50             50         1            0.00337
#>  2     -2.35    0.264             49             50         1.02         0.00340
#>  3     -2.05    0.269             48             50         1.04         0.00344
#>  4     -1.61    0.275             47             50         1.06         0.00348
#>  5     -1.34    0.281             46             50         1.09         0.00351
#>  6     -1.31    0.287             45             50         1.11         0.00356
#>  7     -1.21    0.294             44             50         1.14         0.00360
#>  8     -1.12    0.300             43             50         1.16         0.00364
#>  9     -1.07    0.308             42             50         1.19         0.00369
#> 10     -1.05    0.315             41             50         1.22         0.00374
#> # ℹ 91 more rows
#> # ℹ 15 more variables: rzAUC_high <dbl>, pval_asym_onesided_high <dbl>,
#> #   pval_asym_high <dbl>, auc_low <dbl>, positives_low <dbl>,
#> #   negatives_low <dbl>, scaling_low <dbl>, auc_var_H0_low <dbl>,
#> #   rzAUC_low <dbl>, pval_asym_onesided_low <dbl>, pval_asym_low <dbl>,
#> #   tp <dbl>, fp <dbl>, tpr_global <dbl>, fpr_global <dbl>
…
#> 
#> $single_rROC
#> $performances
#> # A tibble: 101 × 21
#>    threshold auc_high positives_high negatives_high scaling_high auc_var_H0_high
#>        <dbl>    <dbl>          <dbl>          <dbl>        <dbl>           <dbl>
#>  1   -Inf       0.258             50             50         1            0.00337
#>  2     -2.35    0.264             49             50         1.02         0.00340
#>  3     -2.05    0.269             48             50         1.04         0.00344
#>  4     -1.61    0.275             47             50         1.06         0.00348
#>  5     -1.34    0.281             46             50         1.09         0.00351
#>  6     -1.31    0.287             45             50         1.11         0.00356
#>  7     -1.21    0.294             44             50         1.14         0.00360
#>  8     -1.12    0.300             43             50         1.16         0.00364
#>  9     -1.07    0.308             42             50         1.19         0.00369
#> 10     -1.05    0.315             41             50         1.22         0.00374
#> # ℹ 91 more rows
#> # ℹ 15 more variables: rzAUC_high <dbl>, pval_asym_onesided_high <dbl>,
#> #   pval_asym_high <dbl>, auc_low <dbl>, positives_low <dbl>,
#> #   negatives_low <dbl>, scaling_low <dbl>, auc_var_H0_low <dbl>,
#> #   rzAUC_low <dbl>, pval_asym_onesided_low <dbl>, pval_asym_low <dbl>,
#> #   tp <dbl>, fp <dbl>, tpr_global <dbl>, fpr_global <dbl>
…
#> 
#> $single_rROC
#> $performances
#> # A tibble: 101 × 21
#>    threshold auc_high positives_high negatives_high scaling_high auc_var_H0_high
#>        <dbl>    <dbl>          <dbl>          <dbl>        <dbl>           <dbl>
#>  1   -Inf       0.258             50             50         1            0.00337
#>  2     -2.35    0.264             49             50         1.02         0.00340
#>  3     -2.05    0.269             48             50         1.04         0.00344
#>  4     -1.61    0.275             47             50         1.06         0.00348
#>  5     -1.34    0.281             46             50         1.09         0.00351
#>  6     -1.31    0.287             45             50         1.11         0.00356
#>  7     -1.21    0.294             44             50         1.14         0.00360
#>  8     -1.12    0.300             43             50         1.16         0.00364
#>  9     -1.07    0.308             42             50         1.19         0.00369
#> 10     -1.05    0.315             41             50         1.22         0.00374
#> # ℹ 91 more rows
#> # ℹ 15 more variables: rzAUC_high <dbl>, pval_asym_onesided_high <dbl>,
#> #   pval_asym_high <dbl>, auc_low <dbl>, positives_low <dbl>,
#> #   negatives_low <dbl>, scaling_low <dbl>, auc_var_H0_low <dbl>,
#> #   rzAUC_low <dbl>, pval_asym_onesided_low <dbl>, pval_asym_low <dbl>,
#> #   tp <dbl>, fp <dbl>, tpr_global <dbl>, fpr_global <dbl>
…
#> 
#> $single_rROC
#> $performances
#> # A tibble: 101 × 21
#>    threshold auc_high positives_high negatives_high scaling_high auc_var_H0_high
#>        <dbl>    <dbl>          <dbl>          <dbl>        <dbl>           <dbl>
#>  1   -Inf       0.258             50             50         1            0.00337
#>  2     -2.35    0.264             49             50         1.02         0.00340
#>  3     -2.05    0.269             48             50         1.04         0.00344
#>  4     -1.61    0.275             47             50         1.06         0.00348
#>  5     -1.34    0.281             46             50         1.09         0.00351
#>  6     -1.31    0.287             45             50         1.11         0.00356
#>  7     -1.21    0.294             44             50         1.14         0.00360
#>  8     -1.12    0.300             43             50         1.16         0.00364
#>  9     -1.07    0.308             42             50         1.19         0.00369
#> 10     -1.05    0.315             41             50         1.22         0.00374
#> # ℹ 91 more rows
#> # ℹ 15 more variables: rzAUC_high <dbl>, pval_asym_onesided_high <dbl>,
#> #   pval_asym_high <dbl>, auc_low <dbl>, positives_low <dbl>,
#> #   negatives_low <dbl>, scaling_low <dbl>, auc_var_H0_low <dbl>,
#> #   rzAUC_low <dbl>, pval_asym_onesided_low <dbl>, pval_asym_low <dbl>,
#> #   tp <dbl>, fp <dbl>, tpr_global <dbl>, fpr_global <dbl>
…
#> 
#> $single_rROC
#> $performances
#> # A tibble: 101 × 21
#>    threshold auc_high positives_high negatives_high scaling_high auc_var_H0_high
#>        <dbl>    <dbl>          <dbl>          <dbl>        <dbl>           <dbl>
#>  1   -Inf       0.742             50             50         1            0.00337
#>  2     -2.35    0.736             50             49         1.02         0.00340
#>  3     -2.05    0.731             50             48         1.04         0.00344
#>  4     -1.61    0.725             50             47         1.06         0.00348
#>  5     -1.34    0.719             50             46         1.09         0.00351
#>  6     -1.31    0.713             50             45         1.11         0.00356
#>  7     -1.21    0.706             50             44         1.14         0.00360
#>  8     -1.12    0.700             50             43         1.16         0.00364
#>  9     -1.07    0.692             50             42         1.19         0.00369
#> 10     -1.05    0.685             50             41         1.22         0.00374
#> # ℹ 91 more rows
#> # ℹ 15 more variables: rzAUC_high <dbl>, pval_asym_onesided_high <dbl>,
#> #   pval_asym_high <dbl>, auc_low <dbl>, positives_low <dbl>,
#> #   negatives_low <dbl>, scaling_low <dbl>, auc_var_H0_low <dbl>,
#> #   rzAUC_low <dbl>, pval_asym_onesided_low <dbl>, pval_asym_low <dbl>,
#> #   tp <dbl>, fp <dbl>, tpr_global <dbl>, fpr_global <dbl>
…
