Plot 4 rROC plots — plot_density_rROC_empirical • restrictedROC
…
#> 
#> $single_rROC
#> $performances
#> # A tibble: 101 × 21
#>    threshold auc_high positives_high negatives_high scaling_high auc_var_H0_high
#>        <dbl>    <dbl>          <dbl>          <dbl>        <dbl>           <dbl>
#>  1  -Inf        0.224             50             50         1            0.00337
#>  2    -2.20     0.229             49             50         1.02         0.00340
#>  3    -1.56     0.213             49             49         1.04         0.00344
#>  4    -1.44     0.217             48             49         1.06         0.00347
#>  5    -1.39     0.222             47             49         1.09         0.00351
#>  6    -1.32     0.227             46             49         1.11         0.00355
#>  7    -1.20     0.232             45             49         1.13         0.00359
#>  8    -1.07     0.237             44             49         1.16         0.00363
#>  9    -1.00     0.243             43             49         1.19         0.00368
#> 10    -0.943    0.248             42             49         1.21         0.00373
#> # ℹ 91 more rows
#> # ℹ 15 more variables: rzAUC_high <dbl>, pval_asym_onesided_high <dbl>,
#> #   pval_asym_high <dbl>, auc_low <dbl>, positives_low <dbl>,
#> #   negatives_low <dbl>, scaling_low <dbl>, auc_var_H0_low <dbl>,
#> #   rzAUC_low <dbl>, pval_asym_onesided_low <dbl>, pval_asym_low <dbl>,
#> #   tp <dbl>, fp <dbl>, tpr_global <dbl>, fpr_global <dbl>
…
#> 
#> $single_rROC
#> $performances
#> # A tibble: 101 × 21
#>    threshold auc_high positives_high negatives_high scaling_high auc_var_H0_high
#>        <dbl>    <dbl>          <dbl>          <dbl>        <dbl>           <dbl>
#>  1  -Inf        0.776             50             50         1            0.00337
#>  2    -2.20     0.771             50             49         1.02         0.00340
#>  3    -1.56     0.787             49             49         1.04         0.00344
#>  4    -1.44     0.783             49             48         1.06         0.00347
#>  5    -1.39     0.778             49             47         1.09         0.00351
#>  6    -1.32     0.773             49             46         1.11         0.00355
#>  7    -1.20     0.768             49             45         1.13         0.00359
#>  8    -1.07     0.763             49             44         1.16         0.00363
#>  9    -1.00     0.757             49             43         1.19         0.00368
#> 10    -0.943    0.752             49             42         1.21         0.00373
#> # ℹ 91 more rows
#> # ℹ 15 more variables: rzAUC_high <dbl>, pval_asym_onesided_high <dbl>,
#> #   pval_asym_high <dbl>, auc_low <dbl>, positives_low <dbl>,
#> #   negatives_low <dbl>, scaling_low <dbl>, auc_var_H0_low <dbl>,
#> #   rzAUC_low <dbl>, pval_asym_onesided_low <dbl>, pval_asym_low <dbl>,
#> #   tp <dbl>, fp <dbl>, tpr_global <dbl>, fpr_global <dbl>
…
#> 
#> $single_rROC
#> $performances
#> # A tibble: 101 × 21
#>    threshold auc_high positives_high negatives_high scaling_high auc_var_H0_high
#>        <dbl>    <dbl>          <dbl>          <dbl>        <dbl>           <dbl>
#>  1  -Inf        0.224             50             50         1            0.00337
#>  2    -2.20     0.229             49             50         1.02         0.00340
#>  3    -1.56     0.213             49             49         1.04         0.00344
#>  4    -1.44     0.217             48             49         1.06         0.00347
#>  5    -1.39     0.222             47             49         1.09         0.00351
#>  6    -1.32     0.227             46             49         1.11         0.00355
#>  7    -1.20     0.232             45             49         1.13         0.00359
#>  8    -1.07     0.237             44             49         1.16         0.00363
#>  9    -1.00     0.243             43             49         1.19         0.00368
#> 10    -0.943    0.248             42             49         1.21         0.00373
#> # ℹ 91 more rows
#> # ℹ 15 more variables: rzAUC_high <dbl>, pval_asym_onesided_high <dbl>,
#> #   pval_asym_high <dbl>, auc_low <dbl>, positives_low <dbl>,
#> #   negatives_low <dbl>, scaling_low <dbl>, auc_var_H0_low <dbl>,
#> #   rzAUC_low <dbl>, pval_asym_onesided_low <dbl>, pval_asym_low <dbl>,
#> #   tp <dbl>, fp <dbl>, tpr_global <dbl>, fpr_global <dbl>
…
#> 
#> $single_rROC
#> $performances
#> # A tibble: 101 × 21
#>    threshold auc_high positives_high negatives_high scaling_high auc_var_H0_high
#>        <dbl>    <dbl>          <dbl>          <dbl>        <dbl>           <dbl>
#>  1  -Inf        0.224             50             50         1            0.00337
#>  2    -2.20     0.229             49             50         1.02         0.00340
#>  3    -1.56     0.213             49             49         1.04         0.00344
#>  4    -1.44     0.217             48             49         1.06         0.00347
#>  5    -1.39     0.222             47             49         1.09         0.00351
#>  6    -1.32     0.227             46             49         1.11         0.00355
#>  7    -1.20     0.232             45             49         1.13         0.00359
#>  8    -1.07     0.237             44             49         1.16         0.00363
#>  9    -1.00     0.243             43             49         1.19         0.00368
#> 10    -0.943    0.248             42             49         1.21         0.00373
#> # ℹ 91 more rows
#> # ℹ 15 more variables: rzAUC_high <dbl>, pval_asym_onesided_high <dbl>,
#> #   pval_asym_high <dbl>, auc_low <dbl>, positives_low <dbl>,
#> #   negatives_low <dbl>, scaling_low <dbl>, auc_var_H0_low <dbl>,
#> #   rzAUC_low <dbl>, pval_asym_onesided_low <dbl>, pval_asym_low <dbl>,
#> #   tp <dbl>, fp <dbl>, tpr_global <dbl>, fpr_global <dbl>
…
#> 
#> $single_rROC
#> $performances
#> # A tibble: 101 × 21
#>    threshold auc_high positives_high negatives_high scaling_high auc_var_H0_high
#>        <dbl>    <dbl>          <dbl>          <dbl>        <dbl>           <dbl>
#>  1  -Inf        0.224             50             50         1            0.00337
#>  2    -2.20     0.229             49             50         1.02         0.00340
#>  3    -1.56     0.213             49             49         1.04         0.00344
#>  4    -1.44     0.217             48             49         1.06         0.00347
#>  5    -1.39     0.222             47             49         1.09         0.00351
#>  6    -1.32     0.227             46             49         1.11         0.00355
#>  7    -1.20     0.232             45             49         1.13         0.00359
#>  8    -1.07     0.237             44             49         1.16         0.00363
#>  9    -1.00     0.243             43             49         1.19         0.00368
#> 10    -0.943    0.248             42             49         1.21         0.00373
#> # ℹ 91 more rows
#> # ℹ 15 more variables: rzAUC_high <dbl>, pval_asym_onesided_high <dbl>,
#> #   pval_asym_high <dbl>, auc_low <dbl>, positives_low <dbl>,
#> #   negatives_low <dbl>, scaling_low <dbl>, auc_var_H0_low <dbl>,
#> #   rzAUC_low <dbl>, pval_asym_onesided_low <dbl>, pval_asym_low <dbl>,
#> #   tp <dbl>, fp <dbl>, tpr_global <dbl>, fpr_global <dbl>
…
#> 
#> $single_rROC
#> $performances
#> # A tibble: 101 × 21
#>    threshold auc_high positives_high negatives_high scaling_high auc_var_H0_high
#>        <dbl>    <dbl>          <dbl>          <dbl>        <dbl>           <dbl>
#>  1  -Inf        0.224             50             50         1            0.00337
#>  2    -2.20     0.229             49             50         1.02         0.00340
#>  3    -1.56     0.213             49             49         1.04         0.00344
#>  4    -1.44     0.217             48             49         1.06         0.00347
#>  5    -1.39     0.222             47             49         1.09         0.00351
#>  6    -1.32     0.227             46             49         1.11         0.00355
#>  7    -1.20     0.232             45             49         1.13         0.00359
#>  8    -1.07     0.237             44             49         1.16         0.00363
#>  9    -1.00     0.243             43             49         1.19         0.00368
#> 10    -0.943    0.248             42             49         1.21         0.00373
#> # ℹ 91 more rows
#> # ℹ 15 more variables: rzAUC_high <dbl>, pval_asym_onesided_high <dbl>,
#> #   pval_asym_high <dbl>, auc_low <dbl>, positives_low <dbl>,
#> #   negatives_low <dbl>, scaling_low <dbl>, auc_var_H0_low <dbl>,
#> #   rzAUC_low <dbl>, pval_asym_onesided_low <dbl>, pval_asym_low <dbl>,
#> #   tp <dbl>, fp <dbl>, tpr_global <dbl>, fpr_global <dbl>
…
#> 
#> $single_rROC
#> $performances
#> # A tibble: 101 × 21
#>    threshold auc_high positives_high negatives_high scaling_high auc_var_H0_high
#>        <dbl>    <dbl>          <dbl>          <dbl>        <dbl>           <dbl>
#>  1  -Inf        0.776             50             50         1            0.00337
#>  2    -2.20     0.771             50             49         1.02         0.00340
#>  3    -1.56     0.787             49             49         1.04         0.00344
#>  4    -1.44     0.783             49             48         1.06         0.00347
#>  5    -1.39     0.778             49             47         1.09         0.00351
#>  6    -1.32     0.773             49             46         1.11         0.00355
#>  7    -1.20     0.768             49             45         1.13         0.00359
#>  8    -1.07     0.763             49             44         1.16         0.00363
#>  9    -1.00     0.757             49             43         1.19         0.00368
#> 10    -0.943    0.752             49             42         1.21         0.00373
#> # ℹ 91 more rows
#> # ℹ 15 more variables: rzAUC_high <dbl>, pval_asym_onesided_high <dbl>,
#> #   pval_asym_high <dbl>, auc_low <dbl>, positives_low <dbl>,
#> #   negatives_low <dbl>, scaling_low <dbl>, auc_var_H0_low <dbl>,
#> #   rzAUC_low <dbl>, pval_asym_onesided_low <dbl>, pval_asym_low <dbl>,
#> #   tp <dbl>, fp <dbl>, tpr_global <dbl>, fpr_global <dbl>
…
