…
)
#> $table_full
#>          response
#> pred_full Poor Good
#>      Poor   29   35
#>      Good   12   37
#> 
#> $table_restricted
#>          response
#> pred_kept Poor Good
#>      Poor   29   35
#>      Good    8   34
#> 
#> $pred
#> # A tibble: 113 × 5
#>    response predictor keep  pred_full pred_kept
#>    <fct>        <dbl> <lgl> <fct>     <fct>    
#>  1 Good          3.01 FALSE Good      Good     
#>  2 Good          8.54 TRUE  Good      Good     
#>  3 Good          8.09 TRUE  Good      Good     
#>  4 Good         10.4  TRUE  Good      Good     
#>  5 Poor         17.4  TRUE  Poor      Poor     
#>  6 Poor         12.8  TRUE  Poor      Poor     
#>  7 Good          6    TRUE  Good      Good     
#>  8 Poor         13.2  TRUE  Poor      Poor     
#>  9 Good         15.5  TRUE  Poor      Poor     
#> 10 Good          6.01 TRUE  Good      Good     
#> # ℹ 103 more rows
…
)
#> $table_full
#>          response
#> pred_full Poor Good
#>      Poor   29   35
#>      Good   12   37
#> 
#> $table_restricted
#>          response
#> pred_kept Poor Good
#>      Poor   29   35
#>      Good    8   34
#> 
#> $pred
#> # A tibble: 113 × 5
#>    response predictor keep  pred_full pred_kept
#>    <fct>        <dbl> <lgl> <fct>     <fct>    
#>  1 Good          3.01 FALSE Good      Good     
#>  2 Good          8.54 TRUE  Good      Good     
#>  3 Good          8.09 TRUE  Good      Good     
#>  4 Good         10.4  TRUE  Good      Good     
#>  5 Poor         17.4  TRUE  Poor      Poor     
#>  6 Poor         12.8  TRUE  Poor      Poor     
#>  7 Good          6    TRUE  Good      Good     
#>  8 Poor         13.2  TRUE  Poor      Poor     
#>  9 Good         15.5  TRUE  Poor      Poor     
#> 10 Good          6.01 TRUE  Good      Good     
#> # ℹ 103 more rows
…
