…
## Examples

``` r
data(aSAH, package = "pROC")
simple_rROC(
    response = aSAH$outcome,
    predictor = aSAH$ndka
)
#> Positive label not given, setting to last level of factor: Poor
#> $joined_aucs
#> # A tibble: 110 × 21
#>    threshold auc_high positives_high negatives_high scaling_high auc_var_H0_high
#>        <dbl>    <dbl>          <dbl>          <dbl>        <dbl>           <dbl>
#>  1   -Inf       0.612             41             72         1            0.00322
#>  2      3.44    0.606             41             71         1.01         0.00323
#>  3      4.24    0.622             40             71         1.04         0.00329
#>  4      4.82    0.616             40             70         1.05         0.00330
#>  5      5.11    0.611             40             69         1.07         0.00332
#>  6      5.18    0.626             39             69         1.10         0.00338
#>  7      5.28    0.643             38             69         1.13         0.00343
#>  8      5.68    0.660             37             69         1.16         0.00349
#>  9      6.00    0.655             37             68         1.17         0.00351
#> 10      6.15    0.650             37             67         1.19         0.00353
#> # ℹ 100 more rows
#> # ℹ 15 more variables: rzAUC_high <dbl>, pval_asym_onesided_high <dbl>,
#> #   pval_asym_high <dbl>, auc_low <dbl>, positives_low <dbl>,
#> #   negatives_low <dbl>, scaling_low <dbl>, auc_var_H0_low <dbl>,
#> #   rzAUC_low <dbl>, pval_asym_onesided_low <dbl>, pval_asym_low <dbl>,
#> #   tp <dbl>, fp <dbl>, tpr_global <dbl>, fpr_global <dbl>
#> 
#> $positive_label
#> [1] "Poor"
#> 
#> attr(,"class")
#> [1] "simple_rROC" "list"       
simple_rROC(
    response = aSAH$outcome,
    predictor = aSAH$ndka,
    positive_label = "Poor"
)
#> $joined_aucs
#> # A tibble: 110 × 21
#>    threshold auc_high positives_high negatives_high scaling_high auc_var_H0_high
#>        <dbl>    <dbl>          <dbl>          <dbl>        <dbl>           <dbl>
#>  1   -Inf       0.612             41             72         1            0.00322
#>  2      3.44    0.606             41             71         1.01         0.00323
#>  3      4.24    0.622             40             71         1.04         0.00329
#>  4      4.82    0.616             40             70         1.05         0.00330
#>  5      5.11    0.611             40             69         1.07         0.00332
#>  6      5.18    0.626             39             69         1.10         0.00338
#>  7      5.28    0.643             38             69         1.13         0.00343
#>  8      5.68    0.660             37             69         1.16         0.00349
#>  9      6.00    0.655             37             68         1.17         0.00351
#> 10      6.15    0.650             37             67         1.19         0.00353
#> # ℹ 100 more rows
#> # ℹ 15 more variables: rzAUC_high <dbl>, pval_asym_onesided_high <dbl>,
#> #   pval_asym_high <dbl>, auc_low <dbl>, positives_low <dbl>,
#> #   negatives_low <dbl>, scaling_low <dbl>, auc_var_H0_low <dbl>,
#> #   rzAUC_low <dbl>, pval_asym_onesided_low <dbl>, pval_asym_low <dbl>,
#> #   tp <dbl>, fp <dbl>, tpr_global <dbl>, fpr_global <dbl>
#> 
#> $positive_label
#> [1] "Poor"
#> 
#> attr(,"class")
#> [1] "simple_rROC" "list"       
simple_rROC(
    response = aSAH$outcome,
    predictor = aSAH$ndka,
    positive_label = "Good"
)
#> $joined_aucs
#> # A tibble: 110 × 21
#>    threshold auc_high positives_high negatives_high scaling_high auc_var_H0_high
#>        <dbl>    <dbl>          <dbl>          <dbl>        <dbl>           <dbl>
#>  1   -Inf       0.388             72             41         1            0.00322
#>  2      3.44    0.394             71             41         1.01         0.00323
#>  3      4.24    0.378             71             40         1.04         0.00329
#>  4      4.82    0.384             70             40         1.05         0.00330
#>  5      5.11    0.389             69             40         1.07         0.00332
#>  6      5.18    0.374             69             39         1.10         0.00338
#>  7      5.28    0.357             69             38         1.13         0.00343
#>  8      5.68    0.340             69             37         1.16         0.00349
#>  9      6.00    0.345             68             37         1.17         0.00351
#> 10      6.15    0.350             67             37         1.19         0.00353
#> # ℹ 100 more rows
#> # ℹ 15 more variables: rzAUC_high <dbl>, pval_asym_onesided_high <dbl>,
#> #   pval_asym_high <dbl>, auc_low <dbl>, positives_low <dbl>,
#> #   negatives_low <dbl>, scaling_low <dbl>, auc_var_H0_low <dbl>,
#> #   rzAUC_low <dbl>, pval_asym_onesided_low <dbl>, pval_asym_low <dbl>,
#> #   tp <dbl>, fp <dbl>, tpr_global <dbl>, fpr_global <dbl>
#> 
#> $positive_label
#> [1] "Good"
#> 
#> attr(,"class")
#> [1] "simple_rROC" "list"       
simple_rROC(
    response = aSAH$outcome,
    predictor = aSAH$ndka,
    get_all_aucs_fun = restrictedROC:::get_all_aucs_norecalculation
)
#> Positive label not given, setting to last level of factor: Poor
#> $joined_aucs
#> # A tibble: 110 × 21
#>    threshold auc_high positives_high negatives_high scaling_high auc_var_H0_high
#>        <dbl>    <dbl>          <dbl>          <dbl>        <dbl>           <dbl>
#>  1   -Inf       0.612             41             72         1            0.00322
#>  2      3.44    0.606             41             71         1.01         0.00323
#>  3      4.24    0.622             40             71         1.04         0.00329
#>  4      4.82    0.616             40             70         1.05         0.00330
#>  5      5.11    0.611             40             69         1.07         0.00332
#>  6      5.18    0.626             39             69         1.10         0.00338
#>  7      5.28    0.643             38             69         1.13         0.00343
#>  8      5.68    0.660             37             69         1.16         0.00349
#>  9      6.00    0.655             37             68         1.17         0.00351
#> 10      6.15    0.650             37             67         1.19         0.00353
#> # ℹ 100 more rows
#> # ℹ 15 more variables: rzAUC_high <dbl>, pval_asym_onesided_high <dbl>,
#> #   pval_asym_high <dbl>, auc_low <dbl>, positives_low <dbl>,
#> #   negatives_low <dbl>, scaling_low <dbl>, auc_var_H0_low <dbl>,
#> #   rzAUC_low <dbl>, pval_asym_onesided_low <dbl>, pval_asym_low <dbl>,
#> #   tp <dbl>, fp <dbl>, tpr_global <dbl>, fpr_global <dbl>
#> 
#> $positive_label
#> [1] "Poor"
#> 
#> attr(,"class")
#> [1] "simple_rROC" "list"       
simple_rROC(
    response = aSAH$outcome,
    predictor = aSAH$ndka,
    get_all_aucs_fun = restrictedROC:::get_all_aucs
)
#> Positive label not given, setting to last level of factor: Poor
#> $joined_aucs
#> # A tibble: 110 × 19
#>    threshold auc_high positives_high negatives_high auc_var_H0_high rzAUC_high
#>        <dbl>    <dbl>          <int>          <int>           <dbl>      <dbl>
#>  1   -Inf       0.612             41             72         0.00322       1.97
#>  2      3.44    0.606             41             71         0.00323       1.87
#>  3      4.24    0.622             40             71         0.00329       2.12
#>  4      4.82    0.616             40             70         0.00330       2.02
#>  5      5.11    0.611             40             69         0.00332       1.92
#>  6      5.18    0.626             39             69         0.00338       2.17
#>  7      5.28    0.643             38             69         0.00343       2.44
#>  8      5.68    0.660             37             69         0.00349       2.71
#>  9      6.00    0.655             37             68         0.00351       2.62
#> 10      6.15    0.650             37             67         0.00353       2.53
#> # ℹ 100 more rows
#> # ℹ 13 more variables: pval_asym_onesided_high <dbl>, pval_asym_high <dbl>,
#> #   auc_low <dbl>, positives_low <int>, negatives_low <int>,
#> #   auc_var_H0_low <dbl>, rzAUC_low <dbl>, pval_asym_onesided_low <dbl>,
#> #   pval_asym_low <dbl>, tp <dbl>, fp <dbl>, tpr_global <dbl>, fpr_global <dbl>
#> 
#> $positive_label
#> [1] "Poor"
#> 
#> attr(,"class")
#> [1] "simple_rROC" "list"       
simple_rROC(
    response = aSAH$outcome,
    predictor = aSAH$ndka,
    get_all_aucs_fun = restrictedROC:::get_all_aucs,
    return_proc = TRUE
)
#> Positive label not given, setting to last level of factor: Poor
#> $joined_aucs
#> # A tibble: 110 × 19
#>    threshold auc_high positives_high negatives_high auc_var_H0_high rzAUC_high
#>        <dbl>    <dbl>          <int>          <int>           <dbl>      <dbl>
#>  1   -Inf       0.612             41             72         0.00322       1.97
#>  2      3.44    0.606             41             71         0.00323       1.87
#>  3      4.24    0.622             40             71         0.00329       2.12
#>  4      4.82    0.616             40             70         0.00330       2.02
#>  5      5.11    0.611             40             69         0.00332       1.92
#>  6      5.18    0.626             39             69         0.00338       2.17
#>  7      5.28    0.643             38             69         0.00343       2.44
#>  8      5.68    0.660             37             69         0.00349       2.71
#>  9      6.00    0.655             37             68         0.00351       2.62
#> 10      6.15    0.650             37             67         0.00353       2.53
#> # ℹ 100 more rows
#> # ℹ 13 more variables: pval_asym_onesided_high <dbl>, pval_asym_high <dbl>,
#> #   auc_low <dbl>, positives_low <int>, negatives_low <int>,
#> #   auc_var_H0_low <dbl>, rzAUC_low <dbl>, pval_asym_onesided_low <dbl>,
#> #   pval_asym_low <dbl>, tp <dbl>, fp <dbl>, tpr_global <dbl>, fpr_global <dbl>
…
#> roc.default(response = true_pred_df[["true"]], predictor = true_pred_df[["pred"]],     levels = c(FALSE, TRUE), direction = direction)
#> 
#> Data: true_pred_df[["pred"]] in 72 controls (true_pred_df[["true"]] FALSE) < 41 cases (true_pred_df[["true"]] TRUE).
#> Area under the curve: 0.612
#> 
#> attr(,"class")
#> [1] "simple_rROC" "list"       
simple_rROC(
    response = aSAH$outcome,
    predictor = aSAH$ndka,
    check_positive_negative_count = TRUE
)
#> Positive label not given, setting to last level of factor: Poor
#> $joined_aucs
#> # A tibble: 110 × 21
#>    threshold auc_high positives_high negatives_high scaling_high auc_var_H0_high
#>        <dbl>    <dbl>          <dbl>          <dbl>        <dbl>           <dbl>
#>  1   -Inf       0.612             41             72         1            0.00322
#>  2      3.44    0.606             41             71         1.01         0.00323
#>  3      4.24    0.622             40             71         1.04         0.00329
#>  4      4.82    0.616             40             70         1.05         0.00330
#>  5      5.11    0.611             40             69         1.07         0.00332
#>  6      5.18    0.626             39             69         1.10         0.00338
#>  7      5.28    0.643             38             69         1.13         0.00343
#>  8      5.68    0.660             37             69         1.16         0.00349
#>  9      6.00    0.655             37             68         1.17         0.00351
#> 10      6.15    0.650             37             67         1.19         0.00353
#> # ℹ 100 more rows
#> # ℹ 15 more variables: rzAUC_high <dbl>, pval_asym_onesided_high <dbl>,
#> #   pval_asym_high <dbl>, auc_low <dbl>, positives_low <dbl>,
#> #   negatives_low <dbl>, scaling_low <dbl>, auc_var_H0_low <dbl>,
#> #   rzAUC_low <dbl>, pval_asym_onesided_low <dbl>, pval_asym_low <dbl>,
#> #   tp <dbl>, fp <dbl>, tpr_global <dbl>, fpr_global <dbl>
#> 
#> $positive_label
#> [1] "Poor"
#> 
#> attr(,"class")
#> [1] "simple_rROC" "list"       
simple_rROC(
    response = aSAH$outcome,
    predictor = aSAH$ndka,
    do_parallel = TRUE
)
#> Positive label not given, setting to last level of factor: Poor
#> $joined_aucs
#> # A tibble: 110 × 21
#>    threshold auc_high positives_high negatives_high scaling_high auc_var_H0_high
#>        <dbl>    <dbl>          <dbl>          <dbl>        <dbl>           <dbl>
#>  1   -Inf       0.612             41             72         1            0.00322
#>  2      3.44    0.606             41             71         1.01         0.00323
#>  3      4.24    0.622             40             71         1.04         0.00329
#>  4      4.82    0.616             40             70         1.05         0.00330
#>  5      5.11    0.611             40             69         1.07         0.00332
#>  6      5.18    0.626             39             69         1.10         0.00338
#>  7      5.28    0.643             38             69         1.13         0.00343
#>  8      5.68    0.660             37             69         1.16         0.00349
#>  9      6.00    0.655             37             68         1.17         0.00351
#> 10      6.15    0.650             37             67         1.19         0.00353
#> # ℹ 100 more rows
#> # ℹ 15 more variables: rzAUC_high <dbl>, pval_asym_onesided_high <dbl>,
#> #   pval_asym_high <dbl>, auc_low <dbl>, positives_low <dbl>,
#> #   negatives_low <dbl>, scaling_low <dbl>, auc_var_H0_low <dbl>,
#> #   rzAUC_low <dbl>, pval_asym_onesided_low <dbl>, pval_asym_low <dbl>,
#> #   tp <dbl>, fp <dbl>, tpr_global <dbl>, fpr_global <dbl>
…
