…
rroc_perfs[["w.statistic"]] <- NA
rroc_perfs[["w.pvalue"]] <- NA
rroc_perfs[seq_along(w_statistic), "w.statistic"] <- w_statistic
rroc_perfs[seq_along(w_pvalue), "w.pvalue"] <- w_pvalue

rroc_perfs[["u_from_wilcox"]] <- with(rroc_perfs, positives_high * negatives_high - w.statistic)
rroc_perfs[["auroc_from_u"]] <- with(rroc_perfs, u_from_wilcox / (positives_high * negatives_high))

rroc_perfs[, c(1:8, 20:25)]
#> # A tibble: 111 × 14
#>    threshold auc_high positives_high negatives_high scaling_high auc_var_H0_high
#>        <dbl>    <dbl>          <dbl>          <dbl>        <dbl>           <dbl>
#>  1   -Inf       0.391             55             55         1            0.00306
#>  2      6.24    0.379             55             54         1.02         0.00309
#>  3      6.27    0.386             54             54         1.04         0.00311
#>  4      6.29    0.394             53             54         1.06         0.00314
#>  5      6.41    0.382             53             53         1.08         0.00317
#>  6      6.52    0.370             53             52         1.10         0.00321
#>  7      6.61    0.378             52             52         1.12         0.00324
#>  8      6.69    0.385             51             52         1.14         0.00327
#>  9      6.71    0.393             50             52         1.16         0.00330
#> 10      6.72    0.381             50             51         1.19         0.00333
#> # ℹ 101 more rows
#> # ℹ 8 more variables: rzAUC_high <dbl>, pval_asym_onesided_high <dbl>,
#> #   tpr_global <dbl>, fpr_global <dbl>, w.statistic <dbl>, w.pvalue <dbl>,
#> #   u_from_wilcox <dbl>, auroc_from_u <dbl>
…
