…
    #> 
    #> $rroc$single_rROC
    #> $performances
    #> # A tibble: 201 × 21
    #>    threshold auc_high positives_high negatives_high scaling_high auc_var_H0_high
    #>        <dbl>    <dbl>          <dbl>          <dbl>        <dbl>           <dbl>
    #>  1  -Inf        0.675            100            100         1            0.00168
    #>  2     0.612    0.672            100             99         1.01         0.00168
    #>  3     1.06     0.669            100             98         1.02         0.00169
    #>  4     1.36     0.665            100             97         1.03         0.00170
    #>  5     1.60     0.662            100             96         1.04         0.00171
    #>  6     1.79     0.658            100             95         1.05         0.00172
    #>  7     1.96     0.655            100             94         1.06         0.00173
    #>  8     2.11     0.651            100             93         1.08         0.00174
    #>  9     2.24     0.647            100             92         1.09         0.00175
    #> 10     2.37     0.643            100             91         1.10         0.00176
    #> # ℹ 191 more rows
    #> # ℹ 15 more variables: rzAUC_high <dbl>, pval_asym_onesided_high <dbl>,
    #> #   pval_asym_high <dbl>, auc_low <dbl>, positives_low <dbl>,
    #> #   negatives_low <dbl>, scaling_low <dbl>, auc_var_H0_low <dbl>,
    #> #   rzAUC_low <dbl>, pval_asym_onesided_low <dbl>, pval_asym_low <dbl>,
    #> #   tp <dbl>, fp <dbl>, tpr_global <dbl>, fpr_global <dbl>
…
