…
    #> 
    #> $rroc$single_rROC
    #> $performances
    #> # A tibble: 101 × 21
    #>    threshold auc_high positives_high negatives_high scaling_high auc_var_H0_high
    #>        <dbl>    <dbl>          <dbl>          <dbl>        <dbl>           <dbl>
    #>  1   -Inf         0.5            100            100         1            0.00168
    #>  2      2.81      0.5             99             99         1.02         0.00169
    #>  3      3.03      0.5             98             98         1.04         0.00171
    #>  4      3.18      0.5             97             97         1.06         0.00173
    #>  5      3.30      0.5             96             96         1.09         0.00175
    #>  6      3.40      0.5             95             95         1.11         0.00176
    #>  7      3.48      0.5             94             94         1.13         0.00178
    #>  8      3.55      0.5             93             93         1.16         0.00180
    #>  9      3.62      0.5             92             92         1.18         0.00182
    #> 10      3.68      0.5             91             91         1.21         0.00184
    #> # ℹ 91 more rows
    #> # ℹ 15 more variables: rzAUC_high <dbl>, pval_asym_onesided_high <dbl>,
    #> #   pval_asym_high <dbl>, auc_low <dbl>, positives_low <dbl>,
    #> #   negatives_low <dbl>, scaling_low <dbl>, auc_var_H0_low <dbl>,
    #> #   rzAUC_low <dbl>, pval_asym_onesided_low <dbl>, pval_asym_low <dbl>,
    #> #   tp <dbl>, fp <dbl>, tpr_global <dbl>, fpr_global <dbl>
…
    #> 
    #> $rroc$single_rROC
    #> $performances
    #> # A tibble: 201 × 21
    #>    threshold auc_high positives_high negatives_high scaling_high auc_var_H0_high
    #>        <dbl>    <dbl>          <dbl>          <dbl>        <dbl>           <dbl>
    #>  1   -Inf       0.766            100            100         1            0.00168
    #>  2      2.81    0.763            100             99         1.01         0.00168
    #>  3      3.03    0.761            100             98         1.02         0.00169
    #>  4      3.18    0.758            100             97         1.03         0.00170
    #>  5      3.30    0.756            100             96         1.04         0.00171
    #>  6      3.40    0.753            100             95         1.05         0.00172
    #>  7      3.48    0.751            100             94         1.06         0.00173
    #>  8      3.55    0.748            100             93         1.08         0.00174
    #>  9      3.62    0.745            100             92         1.09         0.00175
    #> 10      3.66    0.742            100             91         1.10         0.00176
    #> # ℹ 191 more rows
    #> # ℹ 15 more variables: rzAUC_high <dbl>, pval_asym_onesided_high <dbl>,
    #> #   pval_asym_high <dbl>, auc_low <dbl>, positives_low <dbl>,
    #> #   negatives_low <dbl>, scaling_low <dbl>, auc_var_H0_low <dbl>,
    #> #   rzAUC_low <dbl>, pval_asym_onesided_low <dbl>, pval_asym_low <dbl>,
    #> #   tp <dbl>, fp <dbl>, tpr_global <dbl>, fpr_global <dbl>
…
    #> 
    #> $rroc$single_rROC
    #> $performances
    #> # A tibble: 126 × 21
    #>    threshold auc_high positives_high negatives_high scaling_high auc_var_H0_high
    #>        <dbl>    <dbl>          <dbl>          <dbl>        <dbl>           <dbl>
    #>  1   -Inf       0.621            100            100         1            0.00168
    #>  2      2.81    0.624             99             99         1.02         0.00169
    #>  3      3.03    0.626             98             98         1.04         0.00171
    #>  4      3.18    0.629             97             97         1.06         0.00173
    #>  5      3.30    0.625             97             96         1.07         0.00174
    #>  6      3.40    0.627             96             95         1.10         0.00175
    #>  7      3.48    0.630             95             94         1.12         0.00177
    #>  8      3.55    0.633             94             93         1.14         0.00179
    #>  9      3.62    0.629             94             92         1.16         0.00180
    #> 10      3.68    0.632             93             91         1.18         0.00182
    #> # ℹ 116 more rows
    #> # ℹ 15 more variables: rzAUC_high <dbl>, pval_asym_onesided_high <dbl>,
    #> #   pval_asym_high <dbl>, auc_low <dbl>, positives_low <dbl>,
    #> #   negatives_low <dbl>, scaling_low <dbl>, auc_var_H0_low <dbl>,
    #> #   rzAUC_low <dbl>, pval_asym_onesided_low <dbl>, pval_asym_low <dbl>,
    #> #   tp <dbl>, fp <dbl>, tpr_global <dbl>, fpr_global <dbl>
…
    #> 
    #> $rroc$single_rROC
    #> $performances
    #> # A tibble: 111 × 21
    #>    threshold auc_high positives_high negatives_high scaling_high auc_var_H0_high
    #>        <dbl>    <dbl>          <dbl>          <dbl>        <dbl>           <dbl>
    #>  1   -Inf       0.546            100            100         1            0.00168
    #>  2      2.81    0.546             99             99         1.02         0.00169
    #>  3      3.03    0.547             98             98         1.04         0.00171
    #>  4      3.18    0.548             97             97         1.06         0.00173
    #>  5      3.30    0.549             96             96         1.09         0.00175
    #>  6      3.40    0.550             95             95         1.11         0.00176
    #>  7      3.48    0.551             94             94         1.13         0.00178
    #>  8      3.55    0.553             93             93         1.16         0.00180
    #>  9      3.62    0.554             92             92         1.18         0.00182
    #> 10      3.68    0.555             91             91         1.21         0.00184
    #> # ℹ 101 more rows
    #> # ℹ 15 more variables: rzAUC_high <dbl>, pval_asym_onesided_high <dbl>,
    #> #   pval_asym_high <dbl>, auc_low <dbl>, positives_low <dbl>,
    #> #   negatives_low <dbl>, scaling_low <dbl>, auc_var_H0_low <dbl>,
    #> #   rzAUC_low <dbl>, pval_asym_onesided_low <dbl>, pval_asym_low <dbl>,
    #> #   tp <dbl>, fp <dbl>, tpr_global <dbl>, fpr_global <dbl>
…
    #> 
    #> $rroc$single_rROC
    #> $performances
    #> # A tibble: 201 × 21
    #>    threshold auc_high positives_high negatives_high scaling_high auc_var_H0_high
    #>        <dbl>    <dbl>          <dbl>          <dbl>        <dbl>           <dbl>
    #>  1   -Inf       0.675            100            100         1            0.00168
    #>  2      1.61    0.682             99            100         1.01         0.00168
    #>  3      2.06    0.689             98            100         1.02         0.00169
    #>  4      2.36    0.696             97            100         1.03         0.00170
    #>  5      2.58    0.704             96            100         1.04         0.00171
    #>  6      2.69    0.701             96             99         1.05         0.00172
    #>  7      2.79    0.708             95             99         1.06         0.00173
    #>  8      2.91    0.715             94             99         1.07         0.00174
    #>  9      2.99    0.713             94             98         1.09         0.00175
    #> 10      3.08    0.720             93             98         1.10         0.00176
    #> # ℹ 191 more rows
    #> # ℹ 15 more variables: rzAUC_high <dbl>, pval_asym_onesided_high <dbl>,
    #> #   pval_asym_high <dbl>, auc_low <dbl>, positives_low <dbl>,
    #> #   negatives_low <dbl>, scaling_low <dbl>, auc_var_H0_low <dbl>,
    #> #   rzAUC_low <dbl>, pval_asym_onesided_low <dbl>, pval_asym_low <dbl>,
    #> #   tp <dbl>, fp <dbl>, tpr_global <dbl>, fpr_global <dbl>
…
    #> 
    #> $rroc$single_rROC
    #> $performances
    #> # A tibble: 201 × 21
    #>    threshold auc_high positives_high negatives_high scaling_high auc_var_H0_high
    #>        <dbl>    <dbl>          <dbl>          <dbl>        <dbl>           <dbl>
    #>  1  -Inf        0.675            100            100         1            0.00168
    #>  2     0.612    0.672            100             99         1.01         0.00168
    #>  3     1.06     0.669            100             98         1.02         0.00169
    #>  4     1.36     0.665            100             97         1.03         0.00170
    #>  5     1.60     0.662            100             96         1.04         0.00171
    #>  6     1.79     0.658            100             95         1.05         0.00172
    #>  7     1.96     0.655            100             94         1.06         0.00173
    #>  8     2.11     0.651            100             93         1.08         0.00174
    #>  9     2.24     0.647            100             92         1.09         0.00175
    #> 10     2.37     0.643            100             91         1.10         0.00176
    #> # ℹ 191 more rows
    #> # ℹ 15 more variables: rzAUC_high <dbl>, pval_asym_onesided_high <dbl>,
    #> #   pval_asym_high <dbl>, auc_low <dbl>, positives_low <dbl>,
    #> #   negatives_low <dbl>, scaling_low <dbl>, auc_var_H0_low <dbl>,
    #> #   rzAUC_low <dbl>, pval_asym_onesided_low <dbl>, pval_asym_low <dbl>,
    #> #   tp <dbl>, fp <dbl>, tpr_global <dbl>, fpr_global <dbl>
…
