…
    #> 
    #> $single_rROC
    #> $performances
    #> # A tibble: 101 × 21
    #>    threshold auc_high positives_high negatives_high scaling_high auc_var_H0_high
    #>        <dbl>    <dbl>          <dbl>          <dbl>        <dbl>           <dbl>
    #>  1   -Inf       0.487             49             51         1            0.00337
    #>  2     -2.44    0.477             49             50         1.02         0.00340
    #>  3     -2.02    0.466             49             49         1.04         0.00344
    #>  4     -1.73    0.455             49             48         1.06         0.00347
    #>  5     -1.69    0.464             48             48         1.08         0.00351
    #>  6     -1.60    0.474             47             48         1.11         0.00355
    #>  7     -1.49    0.463             47             47         1.13         0.00358
    #>  8     -1.44    0.451             47             46         1.16         0.00362
    #>  9     -1.35    0.439             47             45         1.18         0.00366
    #> 10     -1.24    0.426             47             44         1.21         0.00371
    #> # ℹ 91 more rows
    #> # ℹ 15 more variables: rzAUC_high <dbl>, pval_asym_onesided_high <dbl>,
    #> #   pval_asym_high <dbl>, auc_low <dbl>, positives_low <dbl>,
    #> #   negatives_low <dbl>, scaling_low <dbl>, auc_var_H0_low <dbl>,
    #> #   rzAUC_low <dbl>, pval_asym_onesided_low <dbl>, pval_asym_low <dbl>,
    #> #   tp <dbl>, fp <dbl>, tpr_global <dbl>, fpr_global <dbl>
…
    #> 
    #> $single_rROC
    #> $performances
    #> # A tibble: 101 × 21
    #>    threshold auc_high positives_high negatives_high scaling_high auc_var_H0_high
    #>        <dbl>    <dbl>          <dbl>          <dbl>        <dbl>           <dbl>
    #>  1   -Inf       0.487             49             51         1            0.00337
    #>  2     -2.44    0.477             49             50         1.02         0.00340
    #>  3     -2.02    0.466             49             49         1.04         0.00344
    #>  4     -1.73    0.455             49             48         1.06         0.00347
    #>  5     -1.69    0.464             48             48         1.08         0.00351
    #>  6     -1.60    0.474             47             48         1.11         0.00355
    #>  7     -1.49    0.463             47             47         1.13         0.00358
    #>  8     -1.44    0.451             47             46         1.16         0.00362
    #>  9     -1.35    0.439             47             45         1.18         0.00366
    #> 10     -1.24    0.426             47             44         1.21         0.00371
    #> # ℹ 91 more rows
    #> # ℹ 15 more variables: rzAUC_high <dbl>, pval_asym_onesided_high <dbl>,
    #> #   pval_asym_high <dbl>, auc_low <dbl>, positives_low <dbl>,
    #> #   negatives_low <dbl>, scaling_low <dbl>, auc_var_H0_low <dbl>,
    #> #   rzAUC_low <dbl>, pval_asym_onesided_low <dbl>, pval_asym_low <dbl>,
    #> #   tp <dbl>, fp <dbl>, tpr_global <dbl>, fpr_global <dbl>
…
    #> 
    #> $single_rROC
    #> $performances
    #> # A tibble: 101 × 21
    #>    threshold auc_high positives_high negatives_high scaling_high auc_var_H0_high
    #>        <dbl>    <dbl>          <dbl>          <dbl>        <dbl>           <dbl>
    #>  1   -Inf       0.487             49             51         1            0.00337
    #>  2     -2.44    0.477             49             50         1.02         0.00340
    #>  3     -2.02    0.466             49             49         1.04         0.00344
    #>  4     -1.73    0.455             49             48         1.06         0.00347
    #>  5     -1.69    0.464             48             48         1.08         0.00351
    #>  6     -1.60    0.474             47             48         1.11         0.00355
    #>  7     -1.49    0.463             47             47         1.13         0.00358
    #>  8     -1.44    0.451             47             46         1.16         0.00362
    #>  9     -1.35    0.439             47             45         1.18         0.00366
    #> 10     -1.24    0.426             47             44         1.21         0.00371
    #> # ℹ 91 more rows
    #> # ℹ 15 more variables: rzAUC_high <dbl>, pval_asym_onesided_high <dbl>,
    #> #   pval_asym_high <dbl>, auc_low <dbl>, positives_low <dbl>,
    #> #   negatives_low <dbl>, scaling_low <dbl>, auc_var_H0_low <dbl>,
    #> #   rzAUC_low <dbl>, pval_asym_onesided_low <dbl>, pval_asym_low <dbl>,
    #> #   tp <dbl>, fp <dbl>, tpr_global <dbl>, fpr_global <dbl>
…
